Interactions
…
d %>% 
  select(cooks_d) %>% 
  arrange(desc(cooks_d))

## # A tibble: 298 x 1
##       cooks_d
##         <dbl>
##  1 0.06841428
##  2 0.06601343
##  3 0.04538495
##  4 0.03535246
##  5 0.03048625
##  6 0.02101939
##  7 0.01923806
##  8 0.01894093
##  9 0.01891255
## 10 0.01867628
## # ... with 288 more rows
…
