Lab 6 Key
…
Scenario

A randomized control trial is being conducted on an intervention designed to reduce girls engagement in risky sexual behavior. The variable condition within the dataset states whether the participant was in the control or intervention condition.

Fit a model evaluating the effect of the intervention, controlling for the age of the participant and their adverse childhood experiences score (aces), on their sexual risk score.

d %>% 
  mutate(condition = factor(condition),
         condition = relevel(condition, ref = "Control"))

## # A tibble: 119 x 14
##    condition         age  aces   sex_risk internalizing externalizing
##    <fct>           <dbl> <dbl>      <dbl>         <dbl>         <dbl>
##  1 Control      15.85763     3 -0.6215645            16            12
##  2 Intervention 15.48255     0  0.4536259             9            13
##  3 Control      13.49213     0 -0.6434958             3             0
##  4 Intervention 14.21766     1 -0.6514939            11            16
##  5 Intervention 17.29500     4  1.151312              9             1
##  6 Intervention 14.80630     3 -0.6855188             9             5
##  7 Intervention 14.60917     3  0.1376239             9             6
##  8 Intervention 18.08624     0  0.2725986             6             7
##  9 Intervention 14.51061     4  0.1848870            19            18
## 10 Intervention 15.32375     5  0.4286057            19            19
## # ... with 109 more rows, and 8 more variables: parent_education <chr>,
## #   parent_income <chr>, parent <chr>, teen_eth <chr>, teen_race <chr>,
## #   parent_eth <chr>, parent_race <chr>, id <chr>
…
