Lab 8
…
11/13/2018

Data prep

In the code chunk below, load the appropriate libraries and import the depression dataset.

library(tidyverse)
library(rio)
library(here)
d <- import(here("data", "depression.xlsx"),
            setclass = "tbl_df") %>% 
  characterize()
d

## # A tibble: 294 x 16
##       id sex      age marital   educat    employ income relig drink health
##    <dbl> <chr>  <dbl> <chr>     <chr>     <chr>   <dbl> <chr> <chr> <chr> 
##  1     1 female    68 widowed   some hig retir      4 prot no    good  
##  2     2 male      58 divorced  some col full      15 prot yes   excel
##  3     3 female    45 married   finished full      28 prot yes   good  
##  4     4 female    50 divorced  finished unemp      9 prot no    excel
##  5     5 female    33 separated finished full      35 prot yes   excel
##  6     6 male      24 married   finished full      11 prot yes   excel
##  7     7 female    58 married   some hig house     11 prot no    fair  
##  8     8 male      22 never ma finished full       9 prot no    excel
##  9     9 female    47 married   finished retir     23 cath yes   poor  
## 10    10 male      30 married   some hig full      35 none  yes   excel
## # ... with 284 more rows, and 6 more variables: regdoc <chr>, treat <chr>,
## #   beddays <chr>, acuteill <chr>, chronill <chr>, depression_score <dbl>
…
